<mxfile host="app.diagrams.net" modified="2023-05-02T07:41:21.983Z" agent="Mozilla/5.0 (Windows NT 10.0; Win64; x64; rv:102.0) Gecko/20100101 Firefox/102.0" etag="dLeDTnqSCZHkTV9jl20q" version="21.2.4" type="device">
  <diagram id="ZG9VE-QkTMEsjiwz6eOL" name="Page-1">
    <mxGraphModel dx="1434" dy="782" grid="1" gridSize="10" guides="1" tooltips="1" connect="1" arrows="1" fold="1" page="1" pageScale="1" pageWidth="827" pageHeight="1169" math="0" shadow="0">
      <root>
        <mxCell id="0" />
        <mxCell id="1" parent="0" />
        <mxCell id="qCgnqj31BmftwCGJresc-1" value="projet sonde" style="ellipse;whiteSpace=wrap;html=1;" parent="1" vertex="1">
          <mxGeometry x="20" y="330" width="140" height="70" as="geometry" />
        </mxCell>
        <mxCell id="qCgnqj31BmftwCGJresc-2" value="&quot;exigence système&quot; aquérir position" style="swimlane;whiteSpace=wrap;html=1;startSize=40;" parent="1" vertex="1">
          <mxGeometry x="160" y="130" width="140" height="90" as="geometry" />
        </mxCell>
        <mxCell id="qCgnqj31BmftwCGJresc-3" value="&lt;div&gt;&quot;exigence système&quot;&lt;/div&gt;&lt;div&gt;acquérir heure&lt;br&gt;&lt;/div&gt;" style="swimlane;whiteSpace=wrap;html=1;startSize=40;" parent="1" vertex="1">
          <mxGeometry x="390" y="140" width="130" height="80" as="geometry" />
        </mxCell>
        <mxCell id="qCgnqj31BmftwCGJresc-4" value="&lt;div&gt;&quot;exigence système&quot;&lt;/div&gt;&lt;div&gt;acquérir une date&lt;br&gt;&lt;/div&gt;" style="swimlane;whiteSpace=wrap;html=1;startSize=30;" parent="1" vertex="1">
          <mxGeometry x="550" y="350" width="176" height="80" as="geometry" />
        </mxCell>
        <mxCell id="qCgnqj31BmftwCGJresc-6" value="&lt;div&gt;&quot;exigence système&quot;&lt;/div&gt;&lt;div&gt;acquérir une température&lt;br&gt;&lt;/div&gt;" style="swimlane;whiteSpace=wrap;html=1;startSize=40;" parent="1" vertex="1">
          <mxGeometry x="530" y="240" width="140" height="90" as="geometry" />
        </mxCell>
        <mxCell id="qCgnqj31BmftwCGJresc-7" value="&lt;div&gt;&quot;mission&quot;&lt;/div&gt;&lt;div&gt;informer sur les mesures atmosphérique&lt;br&gt;&lt;/div&gt;" style="swimlane;whiteSpace=wrap;html=1;startSize=50;" parent="1" vertex="1">
          <mxGeometry x="220" y="300" width="150" height="130" as="geometry" />
        </mxCell>
        <mxCell id="qCgnqj31BmftwCGJresc-8" value="&lt;div&gt;&quot;exigence système&quot;&lt;/div&gt;&lt;div&gt;exprimer pourcentage de batterie&lt;br&gt;&lt;/div&gt;" style="swimlane;whiteSpace=wrap;html=1;startSize=40;" parent="1" vertex="1">
          <mxGeometry x="500" y="470" width="150" height="100" as="geometry" />
        </mxCell>
        <mxCell id="qCgnqj31BmftwCGJresc-9" value="&lt;div&gt;&quot;exigence système&quot;&lt;/div&gt;&lt;div&gt;acquérir une altitude&lt;br&gt;&lt;/div&gt;" style="swimlane;whiteSpace=wrap;html=1;startSize=40;" parent="1" vertex="1">
          <mxGeometry x="310" y="485" width="150" height="100" as="geometry" />
        </mxCell>
        <mxCell id="qCgnqj31BmftwCGJresc-10" value="&lt;div&gt;&quot;exigence système&quot;&lt;/div&gt;&lt;div&gt;acquérir l&#39;hydrométrie&lt;br&gt;&lt;/div&gt;" style="swimlane;whiteSpace=wrap;html=1;startSize=40;" parent="1" vertex="1">
          <mxGeometry x="110" y="485" width="150" height="100" as="geometry" />
        </mxCell>
        <mxCell id="qCgnqj31BmftwCGJresc-12" value="" style="endArrow=block;dashed=1;endFill=0;endSize=12;html=1;rounded=0;entryX=1;entryY=0;entryDx=0;entryDy=0;exitX=0;exitY=0.5;exitDx=0;exitDy=0;" parent="1" source="qCgnqj31BmftwCGJresc-3" target="qCgnqj31BmftwCGJresc-7" edge="1">
          <mxGeometry width="160" relative="1" as="geometry">
            <mxPoint x="330" y="370" as="sourcePoint" />
            <mxPoint x="490" y="370" as="targetPoint" />
          </mxGeometry>
        </mxCell>
        <mxCell id="qCgnqj31BmftwCGJresc-13" value="" style="endArrow=block;dashed=1;endFill=0;endSize=12;html=1;rounded=0;exitX=0;exitY=0.5;exitDx=0;exitDy=0;entryX=1;entryY=0.25;entryDx=0;entryDy=0;" parent="1" source="qCgnqj31BmftwCGJresc-6" target="qCgnqj31BmftwCGJresc-7" edge="1">
          <mxGeometry width="160" relative="1" as="geometry">
            <mxPoint x="280" y="60" as="sourcePoint" />
            <mxPoint x="190" y="90" as="targetPoint" />
          </mxGeometry>
        </mxCell>
        <mxCell id="qCgnqj31BmftwCGJresc-14" value="" style="endArrow=block;dashed=1;endFill=0;endSize=12;html=1;rounded=0;entryX=1;entryY=0.5;entryDx=0;entryDy=0;exitX=0;exitY=0.5;exitDx=0;exitDy=0;" parent="1" source="qCgnqj31BmftwCGJresc-4" target="qCgnqj31BmftwCGJresc-7" edge="1">
          <mxGeometry width="160" relative="1" as="geometry">
            <mxPoint x="280" y="60" as="sourcePoint" />
            <mxPoint x="200" y="88" as="targetPoint" />
          </mxGeometry>
        </mxCell>
        <mxCell id="qCgnqj31BmftwCGJresc-15" value="" style="endArrow=block;dashed=1;endFill=0;endSize=12;html=1;rounded=0;entryX=0.5;entryY=0;entryDx=0;entryDy=0;exitX=0.5;exitY=1;exitDx=0;exitDy=0;" parent="1" source="qCgnqj31BmftwCGJresc-2" target="qCgnqj31BmftwCGJresc-7" edge="1">
          <mxGeometry width="160" relative="1" as="geometry">
            <mxPoint x="210" y="180" as="sourcePoint" />
            <mxPoint x="270" y="100" as="targetPoint" />
          </mxGeometry>
        </mxCell>
        <mxCell id="qCgnqj31BmftwCGJresc-16" value="" style="endArrow=block;dashed=1;endFill=0;endSize=12;html=1;rounded=0;entryX=0.25;entryY=1;entryDx=0;entryDy=0;exitX=0.5;exitY=0;exitDx=0;exitDy=0;" parent="1" source="qCgnqj31BmftwCGJresc-10" target="qCgnqj31BmftwCGJresc-7" edge="1">
          <mxGeometry width="160" relative="1" as="geometry">
            <mxPoint x="405" y="60" as="sourcePoint" />
            <mxPoint x="270" y="100" as="targetPoint" />
          </mxGeometry>
        </mxCell>
        <mxCell id="qCgnqj31BmftwCGJresc-17" value="" style="endArrow=block;dashed=1;endFill=0;endSize=12;html=1;rounded=0;entryX=0.5;entryY=1;entryDx=0;entryDy=0;exitX=0.5;exitY=0;exitDx=0;exitDy=0;" parent="1" source="qCgnqj31BmftwCGJresc-9" target="qCgnqj31BmftwCGJresc-7" edge="1">
          <mxGeometry width="160" relative="1" as="geometry">
            <mxPoint x="215" y="480" as="sourcePoint" />
            <mxPoint x="268" y="440" as="targetPoint" />
          </mxGeometry>
        </mxCell>
        <mxCell id="qCgnqj31BmftwCGJresc-18" value="" style="endArrow=block;dashed=1;endFill=0;endSize=12;html=1;rounded=0;entryX=1;entryY=0.75;entryDx=0;entryDy=0;exitX=0.25;exitY=0;exitDx=0;exitDy=0;" parent="1" source="qCgnqj31BmftwCGJresc-8" target="qCgnqj31BmftwCGJresc-7" edge="1">
          <mxGeometry width="160" relative="1" as="geometry">
            <mxPoint x="405" y="480" as="sourcePoint" />
            <mxPoint x="305" y="440" as="targetPoint" />
          </mxGeometry>
        </mxCell>
        <mxCell id="qCgnqj31BmftwCGJresc-20" value="Text" style="text;html=1;strokeColor=none;fillColor=none;align=center;verticalAlign=middle;whiteSpace=wrap;rounded=0;" parent="1" vertex="1">
          <mxGeometry x="380" y="410" width="60" height="30" as="geometry" />
        </mxCell>
        <mxCell id="qCgnqj31BmftwCGJresc-21" value="" style="endArrow=block;dashed=1;endFill=0;endSize=12;html=1;rounded=0;entryX=1;entryY=0.5;entryDx=0;entryDy=0;exitX=0;exitY=0.5;exitDx=0;exitDy=0;" parent="1" source="qCgnqj31BmftwCGJresc-7" target="qCgnqj31BmftwCGJresc-1" edge="1">
          <mxGeometry width="160" relative="1" as="geometry">
            <mxPoint x="230" y="375" as="sourcePoint" />
            <mxPoint x="160" y="355" as="targetPoint" />
          </mxGeometry>
        </mxCell>
      </root>
    </mxGraphModel>
  </diagram>
</mxfile>
